%!PS-Adobe-2.0 EPSF-2.0
%%Title: cp_xaxis.eps
%%Creator: gnuplot 4.6 patchlevel 2
%%CreationDate: Tue Aug 25 18:07:46 2020
%%DocumentFonts: (atend)
%%BoundingBox: 50 50 410 302
%%EndComments
%%BeginProlog
/gnudict 256 dict def
gnudict begin
%
% The following true/false flags may be edited by hand if desired.
% The unit line width and grayscale image gamma correction may also be changed.
%
/Color true def
/Blacktext false def
/Solid true def
/Dashlength 1 def
/Landscape false def
/Level1 false def
/Rounded false def
/ClipToBoundingBox false def
/SuppressPDFMark false def
/TransparentPatterns false def
/gnulinewidth 5.000 def
/userlinewidth gnulinewidth def
/Gamma 1.0 def
/BackgroundColor {-1.000 -1.000 -1.000} def
%
/vshift -73 def
/dl1 {
  10.0 Dashlength mul mul
  Rounded { currentlinewidth 0.75 mul sub dup 0 le { pop 0.01 } if } if
} def
/dl2 {
  10.0 Dashlength mul mul
  Rounded { currentlinewidth 0.75 mul add } if
} def
/hpt_ 31.5 def
/vpt_ 31.5 def
/hpt hpt_ def
/vpt vpt_ def
/doclip {
  ClipToBoundingBox {
    newpath 50 50 moveto 410 50 lineto 410 302 lineto 50 302 lineto closepath
    clip
  } if
} def
%
% Gnuplot Prolog Version 4.6 (September 2012)
%
%/SuppressPDFMark true def
%
/M {moveto} bind def
/L {lineto} bind def
/R {rmoveto} bind def
/V {rlineto} bind def
/N {newpath moveto} bind def
/Z {closepath} bind def
/C {setrgbcolor} bind def
/f {rlineto fill} bind def
/g {setgray} bind def
/Gshow {show} def   % May be redefined later in the file to support UTF-8
/vpt2 vpt 2 mul def
/hpt2 hpt 2 mul def
/Lshow {currentpoint stroke M 0 vshift R 
	Blacktext {gsave 0 setgray show grestore} {show} ifelse} def
/Rshow {currentpoint stroke M dup stringwidth pop neg vshift R
	Blacktext {gsave 0 setgray show grestore} {show} ifelse} def
/Cshow {currentpoint stroke M dup stringwidth pop -2 div vshift R 
	Blacktext {gsave 0 setgray show grestore} {show} ifelse} def
/UP {dup vpt_ mul /vpt exch def hpt_ mul /hpt exch def
  /hpt2 hpt 2 mul def /vpt2 vpt 2 mul def} def
/DL {Color {setrgbcolor Solid {pop []} if 0 setdash}
 {pop pop pop 0 setgray Solid {pop []} if 0 setdash} ifelse} def
/BL {stroke userlinewidth 2 mul setlinewidth
	Rounded {1 setlinejoin 1 setlinecap} if} def
/AL {stroke userlinewidth 2 div setlinewidth
	Rounded {1 setlinejoin 1 setlinecap} if} def
/UL {dup gnulinewidth mul /userlinewidth exch def
	dup 1 lt {pop 1} if 10 mul /udl exch def} def
/PL {stroke userlinewidth setlinewidth
	Rounded {1 setlinejoin 1 setlinecap} if} def
3.8 setmiterlimit
% Default Line colors
/LCw {1 1 1} def
/LCb {0 0 0} def
/LCa {0 0 0} def
/LC0 {1 0 0} def
/LC1 {0 1 0} def
/LC2 {0 0 1} def
/LC3 {1 0 1} def
/LC4 {0 1 1} def
/LC5 {1 1 0} def
/LC6 {0 0 0} def
/LC7 {1 0.3 0} def
/LC8 {0.5 0.5 0.5} def
% Default Line Types
/LTw {PL [] 1 setgray} def
/LTb {BL [] LCb DL} def
/LTa {AL [1 udl mul 2 udl mul] 0 setdash LCa setrgbcolor} def
/LT0 {PL [] LC0 DL} def
/LT1 {PL [4 dl1 2 dl2] LC1 DL} def
/LT2 {PL [2 dl1 3 dl2] LC2 DL} def
/LT3 {PL [1 dl1 1.5 dl2] LC3 DL} def
/LT4 {PL [6 dl1 2 dl2 1 dl1 2 dl2] LC4 DL} def
/LT5 {PL [3 dl1 3 dl2 1 dl1 3 dl2] LC5 DL} def
/LT6 {PL [2 dl1 2 dl2 2 dl1 6 dl2] LC6 DL} def
/LT7 {PL [1 dl1 2 dl2 6 dl1 2 dl2 1 dl1 2 dl2] LC7 DL} def
/LT8 {PL [2 dl1 2 dl2 2 dl1 2 dl2 2 dl1 2 dl2 2 dl1 4 dl2] LC8 DL} def
/Pnt {stroke [] 0 setdash gsave 1 setlinecap M 0 0 V stroke grestore} def
/Dia {stroke [] 0 setdash 2 copy vpt add M
  hpt neg vpt neg V hpt vpt neg V
  hpt vpt V hpt neg vpt V closepath stroke
  Pnt} def
/Pls {stroke [] 0 setdash vpt sub M 0 vpt2 V
  currentpoint stroke M
  hpt neg vpt neg R hpt2 0 V stroke
 } def
/Box {stroke [] 0 setdash 2 copy exch hpt sub exch vpt add M
  0 vpt2 neg V hpt2 0 V 0 vpt2 V
  hpt2 neg 0 V closepath stroke
  Pnt} def
/Crs {stroke [] 0 setdash exch hpt sub exch vpt add M
  hpt2 vpt2 neg V currentpoint stroke M
  hpt2 neg 0 R hpt2 vpt2 V stroke} def
/TriU {stroke [] 0 setdash 2 copy vpt 1.12 mul add M
  hpt neg vpt -1.62 mul V
  hpt 2 mul 0 V
  hpt neg vpt 1.62 mul V closepath stroke
  Pnt} def
/Star {2 copy Pls Crs} def
/BoxF {stroke [] 0 setdash exch hpt sub exch vpt add M
  0 vpt2 neg V hpt2 0 V 0 vpt2 V
  hpt2 neg 0 V closepath fill} def
/TriUF {stroke [] 0 setdash vpt 1.12 mul add M
  hpt neg vpt -1.62 mul V
  hpt 2 mul 0 V
  hpt neg vpt 1.62 mul V closepath fill} def
/TriD {stroke [] 0 setdash 2 copy vpt 1.12 mul sub M
  hpt neg vpt 1.62 mul V
  hpt 2 mul 0 V
  hpt neg vpt -1.62 mul V closepath stroke
  Pnt} def
/TriDF {stroke [] 0 setdash vpt 1.12 mul sub M
  hpt neg vpt 1.62 mul V
  hpt 2 mul 0 V
  hpt neg vpt -1.62 mul V closepath fill} def
/DiaF {stroke [] 0 setdash vpt add M
  hpt neg vpt neg V hpt vpt neg V
  hpt vpt V hpt neg vpt V closepath fill} def
/Pent {stroke [] 0 setdash 2 copy gsave
  translate 0 hpt M 4 {72 rotate 0 hpt L} repeat
  closepath stroke grestore Pnt} def
/PentF {stroke [] 0 setdash gsave
  translate 0 hpt M 4 {72 rotate 0 hpt L} repeat
  closepath fill grestore} def
/Circle {stroke [] 0 setdash 2 copy
  hpt 0 360 arc stroke Pnt} def
/CircleF {stroke [] 0 setdash hpt 0 360 arc fill} def
/C0 {BL [] 0 setdash 2 copy moveto vpt 90 450 arc} bind def
/C1 {BL [] 0 setdash 2 copy moveto
	2 copy vpt 0 90 arc closepath fill
	vpt 0 360 arc closepath} bind def
/C2 {BL [] 0 setdash 2 copy moveto
	2 copy vpt 90 180 arc closepath fill
	vpt 0 360 arc closepath} bind def
/C3 {BL [] 0 setdash 2 copy moveto
	2 copy vpt 0 180 arc closepath fill
	vpt 0 360 arc closepath} bind def
/C4 {BL [] 0 setdash 2 copy moveto
	2 copy vpt 180 270 arc closepath fill
	vpt 0 360 arc closepath} bind def
/C5 {BL [] 0 setdash 2 copy moveto
	2 copy vpt 0 90 arc
	2 copy moveto
	2 copy vpt 180 270 arc closepath fill
	vpt 0 360 arc} bind def
/C6 {BL [] 0 setdash 2 copy moveto
	2 copy vpt 90 270 arc closepath fill
	vpt 0 360 arc closepath} bind def
/C7 {BL [] 0 setdash 2 copy moveto
	2 copy vpt 0 270 arc closepath fill
	vpt 0 360 arc closepath} bind def
/C8 {BL [] 0 setdash 2 copy moveto
	2 copy vpt 270 360 arc closepath fill
	vpt 0 360 arc closepath} bind def
/C9 {BL [] 0 setdash 2 copy moveto
	2 copy vpt 270 450 arc closepath fill
	vpt 0 360 arc closepath} bind def
/C10 {BL [] 0 setdash 2 copy 2 copy moveto vpt 270 360 arc closepath fill
	2 copy moveto
	2 copy vpt 90 180 arc closepath fill
	vpt 0 360 arc closepath} bind def
/C11 {BL [] 0 setdash 2 copy moveto
	2 copy vpt 0 180 arc closepath fill
	2 copy moveto
	2 copy vpt 270 360 arc closepath fill
	vpt 0 360 arc closepath} bind def
/C12 {BL [] 0 setdash 2 copy moveto
	2 copy vpt 180 360 arc closepath fill
	vpt 0 360 arc closepath} bind def
/C13 {BL [] 0 setdash 2 copy moveto
	2 copy vpt 0 90 arc closepath fill
	2 copy moveto
	2 copy vpt 180 360 arc closepath fill
	vpt 0 360 arc closepath} bind def
/C14 {BL [] 0 setdash 2 copy moveto
	2 copy vpt 90 360 arc closepath fill
	vpt 0 360 arc} bind def
/C15 {BL [] 0 setdash 2 copy vpt 0 360 arc closepath fill
	vpt 0 360 arc closepath} bind def
/Rec {newpath 4 2 roll moveto 1 index 0 rlineto 0 exch rlineto
	neg 0 rlineto closepath} bind def
/Square {dup Rec} bind def
/Bsquare {vpt sub exch vpt sub exch vpt2 Square} bind def
/S0 {BL [] 0 setdash 2 copy moveto 0 vpt rlineto BL Bsquare} bind def
/S1 {BL [] 0 setdash 2 copy vpt Square fill Bsquare} bind def
/S2 {BL [] 0 setdash 2 copy exch vpt sub exch vpt Square fill Bsquare} bind def
/S3 {BL [] 0 setdash 2 copy exch vpt sub exch vpt2 vpt Rec fill Bsquare} bind def
/S4 {BL [] 0 setdash 2 copy exch vpt sub exch vpt sub vpt Square fill Bsquare} bind def
/S5 {BL [] 0 setdash 2 copy 2 copy vpt Square fill
	exch vpt sub exch vpt sub vpt Square fill Bsquare} bind def
/S6 {BL [] 0 setdash 2 copy exch vpt sub exch vpt sub vpt vpt2 Rec fill Bsquare} bind def
/S7 {BL [] 0 setdash 2 copy exch vpt sub exch vpt sub vpt vpt2 Rec fill
	2 copy vpt Square fill Bsquare} bind def
/S8 {BL [] 0 setdash 2 copy vpt sub vpt Square fill Bsquare} bind def
/S9 {BL [] 0 setdash 2 copy vpt sub vpt vpt2 Rec fill Bsquare} bind def
/S10 {BL [] 0 setdash 2 copy vpt sub vpt Square fill 2 copy exch vpt sub exch vpt Square fill
	Bsquare} bind def
/S11 {BL [] 0 setdash 2 copy vpt sub vpt Square fill 2 copy exch vpt sub exch vpt2 vpt Rec fill
	Bsquare} bind def
/S12 {BL [] 0 setdash 2 copy exch vpt sub exch vpt sub vpt2 vpt Rec fill Bsquare} bind def
/S13 {BL [] 0 setdash 2 copy exch vpt sub exch vpt sub vpt2 vpt Rec fill
	2 copy vpt Square fill Bsquare} bind def
/S14 {BL [] 0 setdash 2 copy exch vpt sub exch vpt sub vpt2 vpt Rec fill
	2 copy exch vpt sub exch vpt Square fill Bsquare} bind def
/S15 {BL [] 0 setdash 2 copy Bsquare fill Bsquare} bind def
/D0 {gsave translate 45 rotate 0 0 S0 stroke grestore} bind def
/D1 {gsave translate 45 rotate 0 0 S1 stroke grestore} bind def
/D2 {gsave translate 45 rotate 0 0 S2 stroke grestore} bind def
/D3 {gsave translate 45 rotate 0 0 S3 stroke grestore} bind def
/D4 {gsave translate 45 rotate 0 0 S4 stroke grestore} bind def
/D5 {gsave translate 45 rotate 0 0 S5 stroke grestore} bind def
/D6 {gsave translate 45 rotate 0 0 S6 stroke grestore} bind def
/D7 {gsave translate 45 rotate 0 0 S7 stroke grestore} bind def
/D8 {gsave translate 45 rotate 0 0 S8 stroke grestore} bind def
/D9 {gsave translate 45 rotate 0 0 S9 stroke grestore} bind def
/D10 {gsave translate 45 rotate 0 0 S10 stroke grestore} bind def
/D11 {gsave translate 45 rotate 0 0 S11 stroke grestore} bind def
/D12 {gsave translate 45 rotate 0 0 S12 stroke grestore} bind def
/D13 {gsave translate 45 rotate 0 0 S13 stroke grestore} bind def
/D14 {gsave translate 45 rotate 0 0 S14 stroke grestore} bind def
/D15 {gsave translate 45 rotate 0 0 S15 stroke grestore} bind def
/DiaE {stroke [] 0 setdash vpt add M
  hpt neg vpt neg V hpt vpt neg V
  hpt vpt V hpt neg vpt V closepath stroke} def
/BoxE {stroke [] 0 setdash exch hpt sub exch vpt add M
  0 vpt2 neg V hpt2 0 V 0 vpt2 V
  hpt2 neg 0 V closepath stroke} def
/TriUE {stroke [] 0 setdash vpt 1.12 mul add M
  hpt neg vpt -1.62 mul V
  hpt 2 mul 0 V
  hpt neg vpt 1.62 mul V closepath stroke} def
/TriDE {stroke [] 0 setdash vpt 1.12 mul sub M
  hpt neg vpt 1.62 mul V
  hpt 2 mul 0 V
  hpt neg vpt -1.62 mul V closepath stroke} def
/PentE {stroke [] 0 setdash gsave
  translate 0 hpt M 4 {72 rotate 0 hpt L} repeat
  closepath stroke grestore} def
/CircE {stroke [] 0 setdash 
  hpt 0 360 arc stroke} def
/Opaque {gsave closepath 1 setgray fill grestore 0 setgray closepath} def
/DiaW {stroke [] 0 setdash vpt add M
  hpt neg vpt neg V hpt vpt neg V
  hpt vpt V hpt neg vpt V Opaque stroke} def
/BoxW {stroke [] 0 setdash exch hpt sub exch vpt add M
  0 vpt2 neg V hpt2 0 V 0 vpt2 V
  hpt2 neg 0 V Opaque stroke} def
/TriUW {stroke [] 0 setdash vpt 1.12 mul add M
  hpt neg vpt -1.62 mul V
  hpt 2 mul 0 V
  hpt neg vpt 1.62 mul V Opaque stroke} def
/TriDW {stroke [] 0 setdash vpt 1.12 mul sub M
  hpt neg vpt 1.62 mul V
  hpt 2 mul 0 V
  hpt neg vpt -1.62 mul V Opaque stroke} def
/PentW {stroke [] 0 setdash gsave
  translate 0 hpt M 4 {72 rotate 0 hpt L} repeat
  Opaque stroke grestore} def
/CircW {stroke [] 0 setdash 
  hpt 0 360 arc Opaque stroke} def
/BoxFill {gsave Rec 1 setgray fill grestore} def
/Density {
  /Fillden exch def
  currentrgbcolor
  /ColB exch def /ColG exch def /ColR exch def
  /ColR ColR Fillden mul Fillden sub 1 add def
  /ColG ColG Fillden mul Fillden sub 1 add def
  /ColB ColB Fillden mul Fillden sub 1 add def
  ColR ColG ColB setrgbcolor} def
/BoxColFill {gsave Rec PolyFill} def
/PolyFill {gsave Density fill grestore grestore} def
/h {rlineto rlineto rlineto gsave closepath fill grestore} bind def
%
% PostScript Level 1 Pattern Fill routine for rectangles
% Usage: x y w h s a XX PatternFill
%	x,y = lower left corner of box to be filled
%	w,h = width and height of box
%	  a = angle in degrees between lines and x-axis
%	 XX = 0/1 for no/yes cross-hatch
%
/PatternFill {gsave /PFa [ 9 2 roll ] def
  PFa 0 get PFa 2 get 2 div add PFa 1 get PFa 3 get 2 div add translate
  PFa 2 get -2 div PFa 3 get -2 div PFa 2 get PFa 3 get Rec
  TransparentPatterns {} {gsave 1 setgray fill grestore} ifelse
  clip
  currentlinewidth 0.5 mul setlinewidth
  /PFs PFa 2 get dup mul PFa 3 get dup mul add sqrt def
  0 0 M PFa 5 get rotate PFs -2 div dup translate
  0 1 PFs PFa 4 get div 1 add floor cvi
	{PFa 4 get mul 0 M 0 PFs V} for
  0 PFa 6 get ne {
	0 1 PFs PFa 4 get div 1 add floor cvi
	{PFa 4 get mul 0 2 1 roll M PFs 0 V} for
 } if
  stroke grestore} def
%
/languagelevel where
 {pop languagelevel} {1} ifelse
 2 lt
	{/InterpretLevel1 true def}
	{/InterpretLevel1 Level1 def}
 ifelse
%
% PostScript level 2 pattern fill definitions
%
/Level2PatternFill {
/Tile8x8 {/PaintType 2 /PatternType 1 /TilingType 1 /BBox [0 0 8 8] /XStep 8 /YStep 8}
	bind def
/KeepColor {currentrgbcolor [/Pattern /DeviceRGB] setcolorspace} bind def
<< Tile8x8
 /PaintProc {0.5 setlinewidth pop 0 0 M 8 8 L 0 8 M 8 0 L stroke} 
>> matrix makepattern
/Pat1 exch def
<< Tile8x8
 /PaintProc {0.5 setlinewidth pop 0 0 M 8 8 L 0 8 M 8 0 L stroke
	0 4 M 4 8 L 8 4 L 4 0 L 0 4 L stroke}
>> matrix makepattern
/Pat2 exch def
<< Tile8x8
 /PaintProc {0.5 setlinewidth pop 0 0 M 0 8 L
	8 8 L 8 0 L 0 0 L fill}
>> matrix makepattern
/Pat3 exch def
<< Tile8x8
 /PaintProc {0.5 setlinewidth pop -4 8 M 8 -4 L
	0 12 M 12 0 L stroke}
>> matrix makepattern
/Pat4 exch def
<< Tile8x8
 /PaintProc {0.5 setlinewidth pop -4 0 M 8 12 L
	0 -4 M 12 8 L stroke}
>> matrix makepattern
/Pat5 exch def
<< Tile8x8
 /PaintProc {0.5 setlinewidth pop -2 8 M 4 -4 L
	0 12 M 8 -4 L 4 12 M 10 0 L stroke}
>> matrix makepattern
/Pat6 exch def
<< Tile8x8
 /PaintProc {0.5 setlinewidth pop -2 0 M 4 12 L
	0 -4 M 8 12 L 4 -4 M 10 8 L stroke}
>> matrix makepattern
/Pat7 exch def
<< Tile8x8
 /PaintProc {0.5 setlinewidth pop 8 -2 M -4 4 L
	12 0 M -4 8 L 12 4 M 0 10 L stroke}
>> matrix makepattern
/Pat8 exch def
<< Tile8x8
 /PaintProc {0.5 setlinewidth pop 0 -2 M 12 4 L
	-4 0 M 12 8 L -4 4 M 8 10 L stroke}
>> matrix makepattern
/Pat9 exch def
/Pattern1 {PatternBgnd KeepColor Pat1 setpattern} bind def
/Pattern2 {PatternBgnd KeepColor Pat2 setpattern} bind def
/Pattern3 {PatternBgnd KeepColor Pat3 setpattern} bind def
/Pattern4 {PatternBgnd KeepColor Landscape {Pat5} {Pat4} ifelse setpattern} bind def
/Pattern5 {PatternBgnd KeepColor Landscape {Pat4} {Pat5} ifelse setpattern} bind def
/Pattern6 {PatternBgnd KeepColor Landscape {Pat9} {Pat6} ifelse setpattern} bind def
/Pattern7 {PatternBgnd KeepColor Landscape {Pat8} {Pat7} ifelse setpattern} bind def
} def
%
%
%End of PostScript Level 2 code
%
/PatternBgnd {
  TransparentPatterns {} {gsave 1 setgray fill grestore} ifelse
} def
%
% Substitute for Level 2 pattern fill codes with
% grayscale if Level 2 support is not selected.
%
/Level1PatternFill {
/Pattern1 {0.250 Density} bind def
/Pattern2 {0.500 Density} bind def
/Pattern3 {0.750 Density} bind def
/Pattern4 {0.125 Density} bind def
/Pattern5 {0.375 Density} bind def
/Pattern6 {0.625 Density} bind def
/Pattern7 {0.875 Density} bind def
} def
%
% Now test for support of Level 2 code
%
Level1 {Level1PatternFill} {Level2PatternFill} ifelse
%
/Symbol-Oblique /Symbol findfont [1 0 .167 1 0 0] makefont
dup length dict begin {1 index /FID eq {pop pop} {def} ifelse} forall
currentdict end definefont pop
/MFshow {
   { dup 5 get 3 ge
     { 5 get 3 eq {gsave} {grestore} ifelse }
     {dup dup 0 get findfont exch 1 get scalefont setfont
     [ currentpoint ] exch dup 2 get 0 exch R dup 5 get 2 ne {dup dup 6
     get exch 4 get {Gshow} {stringwidth pop 0 R} ifelse }if dup 5 get 0 eq
     {dup 3 get {2 get neg 0 exch R pop} {pop aload pop M} ifelse} {dup 5
     get 1 eq {dup 2 get exch dup 3 get exch 6 get stringwidth pop -2 div
     dup 0 R} {dup 6 get stringwidth pop -2 div 0 R 6 get
     show 2 index {aload pop M neg 3 -1 roll neg R pop pop} {pop pop pop
     pop aload pop M} ifelse }ifelse }ifelse }
     ifelse }
   forall} def
/Gswidth {dup type /stringtype eq {stringwidth} {pop (n) stringwidth} ifelse} def
/MFwidth {0 exch { dup 5 get 3 ge { 5 get 3 eq { 0 } { pop } ifelse }
 {dup 3 get{dup dup 0 get findfont exch 1 get scalefont setfont
     6 get Gswidth pop add} {pop} ifelse} ifelse} forall} def
/MLshow { currentpoint stroke M
  0 exch R
  Blacktext {gsave 0 setgray MFshow grestore} {MFshow} ifelse } bind def
/MRshow { currentpoint stroke M
  exch dup MFwidth neg 3 -1 roll R
  Blacktext {gsave 0 setgray MFshow grestore} {MFshow} ifelse } bind def
/MCshow { currentpoint stroke M
  exch dup MFwidth -2 div 3 -1 roll R
  Blacktext {gsave 0 setgray MFshow grestore} {MFshow} ifelse } bind def
/XYsave    { [( ) 1 2 true false 3 ()] } bind def
/XYrestore { [( ) 1 2 true false 4 ()] } bind def
Level1 SuppressPDFMark or 
{} {
/SDict 10 dict def
systemdict /pdfmark known not {
  userdict /pdfmark systemdict /cleartomark get put
} if
SDict begin [
  /Title (cp_xaxis.eps)
  /Subject (gnuplot plot)
  /Creator (gnuplot 4.6 patchlevel 2)
  /Author (fbisetti)
%  /Producer (gnuplot)
%  /Keywords ()
  /CreationDate (Tue Aug 25 18:07:46 2020)
  /DOCINFO pdfmark
end
} ifelse
end
%%EndProlog
%%Page: 1 1
gnudict begin
gsave
doclip
50 50 translate
0.050 0.050 scale
0 setgray
newpath
(Times) findfont 220 scalefont setfont
BackgroundColor 0 lt 3 1 roll 0 lt exch 0 lt or or not {BackgroundColor C 1.000 0 0 7200.00 5040.00 BoxColFill} if
1.000 UL
LTb
LCb setrgbcolor
1474 704 M
63 0 V
5266 0 R
-63 0 V
stroke
1342 704 M
[ [(Times) 220.0 0.0 true true 0 ( 0.0001)]
] -73.3 MRshow
1.000 UL
LTb
LCb setrgbcolor
1474 1010 M
31 0 V
5298 0 R
-31 0 V
1474 1190 M
31 0 V
5298 0 R
-31 0 V
1474 1317 M
31 0 V
5298 0 R
-31 0 V
-5298 98 R
31 0 V
5298 0 R
-31 0 V
-5298 81 R
31 0 V
5298 0 R
-31 0 V
-5298 68 R
31 0 V
5298 0 R
-31 0 V
-5298 59 R
31 0 V
5298 0 R
-31 0 V
-5298 52 R
31 0 V
5298 0 R
-31 0 V
-5298 47 R
63 0 V
5266 0 R
-63 0 V
stroke
1342 1722 M
[ [(Times) 220.0 0.0 true true 0 ( 0.001)]
] -73.3 MRshow
1.000 UL
LTb
LCb setrgbcolor
1474 2028 M
31 0 V
5298 0 R
-31 0 V
1474 2207 M
31 0 V
5298 0 R
-31 0 V
1474 2334 M
31 0 V
5298 0 R
-31 0 V
-5298 99 R
31 0 V
5298 0 R
-31 0 V
-5298 81 R
31 0 V
5298 0 R
-31 0 V
-5298 68 R
31 0 V
5298 0 R
-31 0 V
-5298 59 R
31 0 V
5298 0 R
-31 0 V
-5298 52 R
31 0 V
5298 0 R
-31 0 V
-5298 46 R
63 0 V
5266 0 R
-63 0 V
stroke
1342 2739 M
[ [(Times) 220.0 0.0 true true 0 ( 0.01)]
] -73.3 MRshow
1.000 UL
LTb
LCb setrgbcolor
1474 3046 M
31 0 V
5298 0 R
-31 0 V
1474 3225 M
31 0 V
5298 0 R
-31 0 V
1474 3352 M
31 0 V
5298 0 R
-31 0 V
-5298 99 R
31 0 V
5298 0 R
-31 0 V
-5298 80 R
31 0 V
5298 0 R
-31 0 V
-5298 69 R
31 0 V
5298 0 R
-31 0 V
-5298 59 R
31 0 V
5298 0 R
-31 0 V
-5298 52 R
31 0 V
5298 0 R
-31 0 V
-5298 46 R
63 0 V
5266 0 R
-63 0 V
stroke
1342 3757 M
[ [(Times) 220.0 0.0 true true 0 ( 0.1)]
] -73.3 MRshow
1.000 UL
LTb
LCb setrgbcolor
1474 4064 M
31 0 V
5298 0 R
-31 0 V
1474 4243 M
31 0 V
5298 0 R
-31 0 V
1474 4370 M
31 0 V
5298 0 R
-31 0 V
-5298 99 R
31 0 V
5298 0 R
-31 0 V
-5298 80 R
31 0 V
5298 0 R
-31 0 V
-5298 68 R
31 0 V
5298 0 R
-31 0 V
-5298 59 R
31 0 V
5298 0 R
-31 0 V
-5298 52 R
31 0 V
5298 0 R
-31 0 V
-5298 47 R
63 0 V
5266 0 R
-63 0 V
stroke
1342 4775 M
[ [(Times) 220.0 0.0 true true 0 ( 1)]
] -73.3 MRshow
1.000 UL
LTb
LCb setrgbcolor
1754 704 M
0 63 V
0 4008 R
0 -63 V
stroke
1754 484 M
[ [(Times) 220.0 0.0 true true 0 ( 2)]
] -73.3 MCshow
1.000 UL
LTb
LCb setrgbcolor
2315 704 M
0 63 V
0 4008 R
0 -63 V
stroke
2315 484 M
[ [(Times) 220.0 0.0 true true 0 ( 4)]
] -73.3 MCshow
1.000 UL
LTb
LCb setrgbcolor
2876 704 M
0 63 V
0 4008 R
0 -63 V
stroke
2876 484 M
[ [(Times) 220.0 0.0 true true 0 ( 6)]
] -73.3 MCshow
1.000 UL
LTb
LCb setrgbcolor
3437 704 M
0 63 V
0 4008 R
0 -63 V
stroke
3437 484 M
[ [(Times) 220.0 0.0 true true 0 ( 8)]
] -73.3 MCshow
1.000 UL
LTb
LCb setrgbcolor
3998 704 M
0 63 V
0 4008 R
0 -63 V
stroke
3998 484 M
[ [(Times) 220.0 0.0 true true 0 ( 10)]
] -73.3 MCshow
1.000 UL
LTb
LCb setrgbcolor
4559 704 M
0 63 V
0 4008 R
0 -63 V
stroke
4559 484 M
[ [(Times) 220.0 0.0 true true 0 ( 12)]
] -73.3 MCshow
1.000 UL
LTb
LCb setrgbcolor
5120 704 M
0 63 V
0 4008 R
0 -63 V
stroke
5120 484 M
[ [(Times) 220.0 0.0 true true 0 ( 14)]
] -73.3 MCshow
1.000 UL
LTb
LCb setrgbcolor
5681 704 M
0 63 V
0 4008 R
0 -63 V
stroke
5681 484 M
[ [(Times) 220.0 0.0 true true 0 ( 16)]
] -73.3 MCshow
1.000 UL
LTb
LCb setrgbcolor
6242 704 M
0 63 V
0 4008 R
0 -63 V
stroke
6242 484 M
[ [(Times) 220.0 0.0 true true 0 ( 18)]
] -73.3 MCshow
1.000 UL
LTb
LCb setrgbcolor
6803 704 M
0 63 V
0 4008 R
0 -63 V
stroke
6803 484 M
[ [(Times) 220.0 0.0 true true 0 ( 20)]
] -73.3 MCshow
1.000 UL
LTb
LCb setrgbcolor
1.000 UL
LTb
LCb setrgbcolor
1474 4775 N
0 -4071 V
5329 0 V
0 4071 V
-5329 0 V
Z stroke
LCb setrgbcolor
176 2739 M
currentpoint gsave translate -270 rotate 0 0 moveto
[ [(Times) 220.0 0.0 true true 0 (c)]
[(Times) 176.0 -66.0 true true 0 (p)]
] -51.3 MCshow
grestore
LTb
LCb setrgbcolor
4138 154 M
[ [(Times) 220.0 0.0 true true 0 (r/a)]
] -73.3 MCshow
LTb
1.000 UP
1.000 UL
LTb
LCb setrgbcolor
% Begin plot #1
1.000 UP
2.000 UL
LT0
0.89 0.10 0.11 C LCb setrgbcolor
5361 4602 M
[ [(Times) 220.0 0.0 true true 0 (OpenFoam \(simpleFoam+RAS\))]
] -73.3 MRshow
LT0
0.89 0.10 0.11 C 5493 4602 M
591 0 V
6642 2234 M
-187 27 V
-302 47 V
-373 67 V
-374 77 V
-280 64 V
-187 49 V
-139 38 V
-91 26 V
-91 28 V
-91 27 V
-91 29 V
-91 29 V
-91 31 V
-91 32 V
-91 33 V
-91 34 V
-91 35 V
-91 37 V
-91 38 V
-91 40 V
-91 41 V
-91 43 V
-91 45 V
-91 47 V
-91 49 V
-91 51 V
-91 53 V
-68 42 V
-46 29 V
-45 30 V
-46 30 V
-45 31 V
-46 32 V
-45 33 V
-46 33 V
-45 35 V
-46 35 V
-46 37 V
-45 37 V
-46 39 V
-45 40 V
-46 41 V
-45 42 V
-46 44 V
-34 33 V
-22 23 V
-23 24 V
-23 23 V
-23 24 V
-22 25 V
-23 24 V
-23 25 V
-23 26 V
-22 26 V
-23 26 V
-23 27 V
-23 27 V
-22 27 V
-23 28 V
-23 29 V
-23 29 V
-22 29 V
-23 29 V
-23 30 V
-23 30 V
-23 31 V
-22 30 V
-23 31 V
-23 30 V
-23 29 V
-22 28 V
-23 26 V
-17 19 V
-11 10 V
-8 6 V
-6 4 V
-5 2 V
-3 1 V
-1 1 V
-1 0 V
-1 0 V
-1 0 V
-1 0 V
-1 1 V
-1 0 V
-1 0 V
-1 0 V
-1 0 V
-1 0 V
6642 2234 Box
6455 2261 Box
6153 2308 Box
5780 2375 Box
5406 2452 Box
5126 2516 Box
4939 2565 Box
4800 2603 Box
4709 2629 Box
4618 2657 Box
4527 2684 Box
4436 2713 Box
4345 2742 Box
4254 2773 Box
4163 2805 Box
4072 2838 Box
3981 2872 Box
3890 2907 Box
3799 2944 Box
3708 2982 Box
3617 3022 Box
3526 3063 Box
3435 3106 Box
3344 3151 Box
3253 3198 Box
3162 3247 Box
3071 3298 Box
2980 3351 Box
2912 3393 Box
2866 3422 Box
2821 3452 Box
2775 3482 Box
2730 3513 Box
2684 3545 Box
2639 3578 Box
2593 3611 Box
2548 3646 Box
2502 3681 Box
2456 3718 Box
2411 3755 Box
2365 3794 Box
2320 3834 Box
2274 3875 Box
2229 3917 Box
2183 3961 Box
2149 3994 Box
2127 4017 Box
2104 4041 Box
2081 4064 Box
2058 4088 Box
2036 4113 Box
2013 4137 Box
1990 4162 Box
1967 4188 Box
1945 4214 Box
1922 4240 Box
1899 4267 Box
1876 4294 Box
1854 4321 Box
1831 4349 Box
1808 4378 Box
1785 4407 Box
1763 4436 Box
1740 4465 Box
1717 4495 Box
1694 4525 Box
1671 4556 Box
1649 4586 Box
1626 4617 Box
1603 4647 Box
1580 4676 Box
1558 4704 Box
1535 4730 Box
1518 4749 Box
1507 4759 Box
1499 4765 Box
1493 4769 Box
1488 4771 Box
1485 4772 Box
1484 4773 Box
1483 4773 Box
1482 4773 Box
1481 4773 Box
1481 4773 Box
1480 4773 Box
1480 4773 Box
1479 4774 Box
1479 4774 Box
1478 4774 Box
1478 4774 Box
1477 4774 Box
1477 4774 Box
1477 4774 Box
1477 4774 Box
1476 4774 Box
1476 4774 Box
1476 4774 Box
1476 4774 Box
1475 4774 Box
1475 4774 Box
1475 4774 Box
1475 4774 Box
1475 4774 Box
1475 4774 Box
1475 4774 Box
1475 4774 Box
1474 4774 Box
1474 4774 Box
1474 4774 Box
1474 4774 Box
1474 4774 Box
1474 4774 Box
1474 4774 Box
1474 4774 Box
5788 4602 Box
% End plot #1
% Begin plot #2
1.000 UP
1.000 UL
LT3
0.00 0.00 0.00 C LCb setrgbcolor
5361 4382 M
[ [(Times) 220.0 0.0 true true 0 (OpenFoam \(potentialFoam\))]
] -73.3 MRshow
LT3
0.00 0.00 0.00 C 5493 4382 M
591 0 V
6523 1647 M
-374 116 V
-374 119 V
-374 127 V
-281 95 V
-187 66 V
-139 51 V
-91 33 V
-91 35 V
-91 37 V
-92 38 V
-91 39 V
-91 40 V
-91 41 V
-91 42 V
-91 43 V
-91 44 V
-92 46 V
-91 47 V
-91 49 V
-91 51 V
-91 52 V
-91 54 V
-92 56 V
-91 59 V
-91 60 V
-91 65 V
-68 50 V
-46 33 V
-45 34 V
-46 36 V
-46 36 V
-45 38 V
-46 38 V
-45 40 V
-46 40 V
-46 42 V
-45 43 V
-46 44 V
-45 45 V
-46 47 V
-45 48 V
-46 49 V
-46 52 V
-34 40 V
-23 26 V
-22 26 V
-23 27 V
-23 28 V
-23 28 V
-22 29 V
-23 29 V
-23 29 V
-23 30 V
-23 31 V
-22 31 V
-23 31 V
-23 31 V
-23 33 V
-23 32 V
-22 33 V
-23 33 V
-23 34 V
-23 34 V
-23 34 V
-20 31 V
-12 17 V
-13 20 V
-23 34 V
-23 34 V
-23 32 V
-22 30 V
-23 28 V
-17 17 V
-11 8 V
-9 5 V
-5 2 V
-5 1 V
-3 0 V
6523 1647 CircleF
6149 1763 CircleF
5775 1882 CircleF
5401 2009 CircleF
5120 2104 CircleF
4933 2170 CircleF
4794 2221 CircleF
4703 2254 CircleF
4612 2289 CircleF
4521 2326 CircleF
4429 2364 CircleF
4338 2403 CircleF
4247 2443 CircleF
4156 2484 CircleF
4065 2526 CircleF
3974 2569 CircleF
3883 2613 CircleF
3791 2659 CircleF
3700 2706 CircleF
3609 2755 CircleF
3518 2806 CircleF
3427 2858 CircleF
3336 2912 CircleF
3244 2968 CircleF
3153 3027 CircleF
3062 3087 CircleF
2971 3152 CircleF
2903 3202 CircleF
2857 3235 CircleF
2812 3269 CircleF
2766 3305 CircleF
2720 3341 CircleF
2675 3379 CircleF
2629 3417 CircleF
2584 3457 CircleF
2538 3497 CircleF
2492 3539 CircleF
2447 3582 CircleF
2401 3626 CircleF
2356 3671 CircleF
2310 3718 CircleF
2265 3766 CircleF
2219 3815 CircleF
2173 3867 CircleF
2139 3907 CircleF
2116 3933 CircleF
2094 3959 CircleF
2071 3986 CircleF
2048 4014 CircleF
2025 4042 CircleF
2003 4071 CircleF
1980 4100 CircleF
1957 4129 CircleF
1934 4159 CircleF
1911 4190 CircleF
1889 4221 CircleF
1866 4252 CircleF
1843 4283 CircleF
1820 4316 CircleF
1797 4348 CircleF
1775 4381 CircleF
1752 4414 CircleF
1729 4448 CircleF
1706 4482 CircleF
1683 4516 CircleF
1663 4547 CircleF
1651 4564 CircleF
1638 4584 CircleF
1615 4618 CircleF
1592 4652 CircleF
1569 4684 CircleF
1547 4714 CircleF
1524 4742 CircleF
1507 4759 CircleF
1496 4767 CircleF
1487 4772 CircleF
1482 4774 CircleF
1477 4775 CircleF
1474 4775 CircleF
5788 4382 CircleF
% End plot #2
% Begin plot #3
2.000 UL
LT1
0.22 0.49 0.72 C LCb setrgbcolor
5361 4162 M
[ [(Times) 220.0 0.0 true true 0 (theory \(cylinder\))]
] -73.3 MRshow
LT1
0.22 0.49 0.72 C 5493 4162 M
591 0 V
1474 4775 M
54 -41 V
54 -74 V
53 -80 V
54 -79 V
54 -76 V
54 -71 V
54 -68 V
54 -63 V
53 -59 V
54 -56 V
54 -53 V
54 -51 V
54 -47 V
54 -46 V
53 -43 V
54 -41 V
54 -40 V
54 -38 V
54 -36 V
54 -35 V
53 -34 V
54 -32 V
54 -31 V
54 -31 V
54 -29 V
54 -28 V
53 -28 V
54 -26 V
54 -26 V
54 -26 V
54 -24 V
54 -24 V
53 -23 V
54 -23 V
54 -22 V
54 -21 V
54 -21 V
53 -21 V
54 -20 V
54 -20 V
54 -19 V
54 -19 V
54 -18 V
53 -18 V
54 -18 V
54 -17 V
54 -17 V
54 -17 V
54 -16 V
53 -16 V
54 -16 V
54 -16 V
54 -15 V
54 -15 V
54 -15 V
53 -14 V
54 -14 V
54 -14 V
54 -14 V
54 -14 V
54 -13 V
53 -13 V
54 -14 V
54 -12 V
54 -13 V
54 -12 V
53 -13 V
54 -12 V
54 -12 V
54 -12 V
54 -11 V
54 -12 V
53 -11 V
54 -11 V
54 -11 V
54 -11 V
54 -11 V
54 -11 V
53 -10 V
54 -11 V
54 -10 V
54 -10 V
54 -10 V
54 -10 V
53 -10 V
54 -10 V
54 -9 V
54 -10 V
54 -9 V
54 -10 V
53 -9 V
54 -9 V
54 -9 V
54 -9 V
54 -9 V
54 -9 V
53 -8 V
54 -9 V
54 -8 V
% End plot #3
% Begin plot #4
stroke
4.000 UL
LT2
0.30 0.69 0.29 C LCb setrgbcolor
5361 3942 M
[ [(Times) 220.0 0.0 true true 0 (theory \(sphere\))]
] -73.3 MRshow
LT2
0.30 0.69 0.29 C 5493 3942 M
591 0 V
1474 4775 M
54 -81 V
54 -136 V
53 -140 V
54 -134 V
54 -125 V
54 -116 V
54 -108 V
54 -101 V
53 -94 V
54 -88 V
54 -83 V
54 -78 V
54 -74 V
54 -70 V
53 -67 V
54 -63 V
54 -61 V
54 -58 V
54 -56 V
54 -53 V
53 -52 V
54 -49 V
54 -48 V
54 -46 V
54 -44 V
54 -43 V
53 -42 V
54 -40 V
54 -40 V
54 -38 V
54 -37 V
54 -36 V
53 -35 V
54 -34 V
54 -34 V
54 -32 V
54 -32 V
53 -31 V
54 -30 V
54 -30 V
54 -29 V
54 -28 V
54 -28 V
53 -27 V
54 -27 V
54 -26 V
54 -26 V
54 -25 V
54 -25 V
53 -24 V
54 -24 V
54 -23 V
54 -23 V
54 -23 V
54 -22 V
53 -22 V
54 -21 V
54 -21 V
54 -21 V
54 -20 V
54 -21 V
53 -20 V
54 -19 V
54 -19 V
54 -19 V
54 -19 V
53 -19 V
54 -18 V
54 -18 V
54 -18 V
54 -17 V
54 -17 V
53 -17 V
54 -17 V
54 -17 V
54 -16 V
54 -17 V
54 -16 V
53 -15 V
54 -16 V
54 -16 V
54 -15 V
54 -15 V
54 -15 V
53 -15 V
54 -14 V
54 -15 V
54 -14 V
54 -14 V
54 -14 V
53 -14 V
54 -14 V
54 -13 V
54 -14 V
54 -13 V
54 -13 V
53 -13 V
54 -13 V
54 -13 V
% End plot #4
stroke
1.000 UL
LTb
LCb setrgbcolor
1474 4775 N
0 -4071 V
5329 0 V
0 4071 V
-5329 0 V
Z stroke
1.000 UP
1.000 UL
LTb
LCb setrgbcolor
stroke
grestore
end
showpage
%%Trailer
%%DocumentFonts: Times
